"","Area","Genero","epiteto","Especies"
"1","0","Adenocalymma","ackermannii","Adenocalymma ackermannii"
"2","0","Adenocalymma","apetiolatum","Adenocalymma apetiolatum"
"3","0","Adenocalymma","apparicianum","Adenocalymma apparicianum"
"4","0","Adenocalymma","aurantiacum","Adenocalymma aurantiacum"
"5","0","Adenocalymma","bullatum","Adenocalymma bullatum"
"6","0","Adenocalymma","candolleanum","Adenocalymma candolleanum"
"7","0","Adenocalymma","cinereum","Adenocalymma cinereum"
"8","0","Adenocalymma","cristicalyx","Adenocalymma cristicalyx"
"9","0","Adenocalymma","cymbalum","Adenocalymma cymbalum"
"10","0","Adenocalymma","dichilum","Adenocalymma dichilum"
"11","0","Adenocalymma","divaricatum","Adenocalymma divaricatum"
"12","0","Adenocalymma","gibbosum","Adenocalymma gibbosum"
"13","0","Adenocalymma","grandifolium","Adenocalymma grandifolium"
"14","0","Adenocalymma","hirtum","Adenocalymma hirtum"
"15","0","Adenocalymma","hypostictum","Adenocalymma hypostictum"
"16","0","Adenocalymma","lineare","Adenocalymma lineare"
"17","0","Adenocalymma","macrophyllum","Adenocalymma macrophyllum"
"18","0","Adenocalymma","pubescens","Adenocalymma pubescens"
"19","0","Adenocalymma","salmoneum","Adenocalymma salmoneum"
"20","0","Adenocalymma","scabriusculum","Adenocalymma scabriusculum"
"21","0","Adenocalymma","sessile","Adenocalymma sessile"
"22","0","Adenocalymma","subsessilifolium","Adenocalymma subsessilifolium"
"23","0","Adenocalymma","subspicatum","Adenocalymma subspicatum"
"24","0","Adenocalymma","trifoliatum","Adenocalymma trifoliatum"
"25","0","Adenocalymma","ubatubense","Adenocalymma ubatubense"
"26","0","Amphilophium","bauhinioides","Amphilophium bauhinioides"
"27","0","Amphilophium","bracteatum","Amphilophium bracteatum"
"28","0","Amphilophium","dolichoides","Amphilophium dolichoides"
"29","0","Amphilophium","frutescens","Amphilophium frutescens"
"30","0","Anemopaegma","album","Anemopaegma album"
"31","0","Anemopaegma","citrinum","Anemopaegma citrinum"
"32","0","Anemopaegma","goyazense","Anemopaegma goyazense"
"33","0","Anemopaegma","heringeri","Anemopaegma heringeri"
"34","0","Anemopaegma","hilarianum","Anemopaegma hilarianum"
"35","0","Anemopaegma","laeve","Anemopaegma laeve"
"36","0","Anemopaegma","scabriusculum","Anemopaegma scabriusculum"
"37","0","Anemopaegma","setilobum","Anemopaegma setilobum"
"38","0","Anemopaegma","velutinum","Anemopaegma velutinum"
"39","0","Bignonia","costata","Bignonia costata"
"40","0","Cuspidaria","argentea","Cuspidaria argentea"
"41","0","Cuspidaria","cratensis","Cuspidaria cratensis"
"42","0","Cuspidaria","lasiantha","Cuspidaria lasiantha"
"43","0","Cuspidaria","multiflora","Cuspidaria multiflora"
"44","0","Cuspidaria","octoptera","Cuspidaria octoptera"
"45","0","Dolichandra","unguiculata","Dolichandra unguiculata"
"46","0","Fridericia","bahiensis","Fridericia bahiensis"
"47","0","Fridericia","cuneifolia","Fridericia cuneifolia"
"48","0","Fridericia","dispar","Fridericia dispar"
"49","0","Fridericia","elegans","Fridericia elegans"
"50","0","Fridericia","erubescens","Fridericia erubescens"
"51","0","Fridericia","formosa","Fridericia formosa"
"52","0","Fridericia","leucopogon","Fridericia leucopogon"
"53","0","Fridericia","limae","Fridericia limae"
"54","0","Fridericia","rego","Fridericia rego"
"55","0","Fridericia","simplex","Fridericia simplex"
"56","0","Fridericia","subexserta","Fridericia subexserta"
"57","0","Fridericia","subincana","Fridericia subincana"
"58","0","Fridericia","subverticillata","Fridericia subverticillata"
"59","0","Fridericia","trachyphylla","Fridericia trachyphylla"
"60","0","Fridericia","tynanthoides","Fridericia tynanthoides"
"61","0","Lundia","damazioi","Lundia damazioi"
"62","0","Lundia","gardneri","Lundia gardneri"
"63","0","Lundia","helicocalyx","Lundia helicocalyx"
"64","0","Lundia","obliqua","Lundia obliqua"
"65","0","Lundia","virginalis","Lundia virginalis"
"66","0","Mansoa","hirsuta","Mansoa hirsuta"
"67","0","Mansoa","hymenaea","Mansoa hymenaea"
"68","0","Mansoa","lanceolata","Mansoa lanceolata"
"69","0","Mansoa","minensis","Mansoa minensis"
"70","0","Mansoa","paganuccii","Mansoa paganuccii"
"71","0","Martinella","insignis","Martinella insignis"
"72","0","Pleonotoma","castelnaei","Pleonotoma castelnaei"
"73","0","Pleonotoma","stichadenia","Pleonotoma stichadenia"
"74","0","Tanaecium","cyrtanthum","Tanaecium cyrtanthum"
"75","0","Tanaecium","neobrasiliense","Tanaecium neobrasiliense"
"76","0","Tanaecium","paradoxum","Tanaecium paradoxum"
"77","0","Tanaecium","parviflorum","Tanaecium parviflorum"
"78","0","Tynanthus","fasciculatus","Tynanthus fasciculatus"
"79","0","Tynanthus","labiatus","Tynanthus labiatus"
"80","0","Xylophragma","corchoroides","Xylophragma corchoroides"
"81","0","Xylophragma","harleyi","Xylophragma harleyi"
"82","0","Xylophragma","heterocalyx","Xylophragma heterocalyx"
"83","0","Xylophragma","myrianthum","Xylophragma myrianthum"
"84","1","Adenocalymma","bullatum","Adenocalymma bullatum"
"85","1","Cuspidaria","pulchella","Cuspidaria pulchella"
"86","1","Fridericia","formosa","Fridericia formosa"
"87","1","Lundia","obliqua","Lundia obliqua"
"88","1","Pleonotoma","fluminensis","Pleonotoma fluminensis"
"89","1","Tynanthus","fasciculatus","Tynanthus fasciculatus"
"90","2","Adenocalymma","mirabile","Adenocalymma mirabile"
"91","2","Adenocalymma","subspicatum","Adenocalymma subspicatum"
"92","2","Anemopaegma","mirabile","Anemopaegma mirabile"
"93","2","Fridericia","crassa","Fridericia crassa"
"94","2","Fridericia","pliciflora","Fridericia pliciflora"
"95","2","Lundia","helicocalyx","Lundia helicocalyx"
"96","3","Amphilophium","obovatum","Amphilophium obovatum"
"97","3","Amphilophium","pauciflorum","Amphilophium pauciflorum"
"98","3","Fridericia","grosourdyana","Fridericia grosourdyana"
"99","3","Pleonotoma","echitidea","Pleonotoma echitidea"
"100","4","Adenocalymma","allamandiflorum","Adenocalymma allamandiflorum"
"101","4","Adenocalymma","gracielzae","Adenocalymma gracielzae"
"102","4","Adenocalymma","magnificum","Adenocalymma magnificum"
"103","4","Adenocalymma","velutinum","Adenocalymma velutinum"
"104","4","Mansoa","angustidens","Mansoa angustidens"
"105","4","Pleonotoma","bracteata","Pleonotoma bracteata"
"106","4","Pyrostegia","millingtonioides","Pyrostegia millingtonioides"
"107","5","Adenocalymma","ackermannii","Adenocalymma ackermannii"
"108","5","Adenocalymma","dichilum","Adenocalymma dichilum"
"109","5","Adenocalymma","hypostictum","Adenocalymma hypostictum"
"110","5","Amphilophium","blanchetii","Amphilophium blanchetii"
"111","5","Amphilophium","perbracteatum","Amphilophium perbracteatum"
"112","5","Lundia","gardneri","Lundia gardneri"
"113","5","Mansoa","ivanii","Mansoa ivanii"
"114","5","Mansoa","longicalyx","Mansoa longicalyx"
"115","5","Xylophragma","harleyi","Xylophragma harleyi"
"116","6","Adenocalymma","divaricatum","Adenocalymma divaricatum"
"117","6","Anemopaegma","gracile","Anemopaegma gracile"
"118","6","Fridericia","erubescens","Fridericia erubescens"
"119","6","Pleonotoma","stichadenia","Pleonotoma stichadenia"
"120","7","Bignonia","lilacina","Bignonia lilacina"
"121","7","Cuspidaria","inaequalis","Cuspidaria inaequalis"
"122","7","Lundia","densiflora","Lundia densiflora"
"123","7","Tanaecium","bilabiatum","Tanaecium bilabiatum"
"124","8","Adenocalymma","ackermannii","Adenocalymma ackermannii"
"125","8","Adenocalymma","flavum","Adenocalymma flavum"
"126","8","Adenocalymma","hypostictum","Adenocalymma hypostictum"
"127","8","Martinella","insignis","Martinella insignis"
"128","9","Adenocalymma","coriaceum","Adenocalymma coriaceum"
"129","9","Anemopaegma","citrinum","Anemopaegma citrinum"
"130","9","Cuspidaria","lasiantha","Cuspidaria lasiantha"
"131","10","Adenocalymma","album","Adenocalymma album"
"132","10","Adenocalymma","saulense","Adenocalymma saulense"
"133","10","Amphilophium","cremersii","Amphilophium cremersii"
"134","10","Anemopaegma","granvillei","Anemopaegma granvillei"
"135","10","Fridericia","oligantha","Fridericia oligantha"
"136","10","Tynanthus","sastrei","Tynanthus sastrei"
"137","11","Adenocalymma","bracteatum","Adenocalymma bracteatum"
"138","11","Anemopaegma","arvense","Anemopaegma arvense"
"139","11","Fridericia","craterophora","Fridericia craterophora"
"140","12","Fridericia","floribunda","Fridericia floribunda"
"141","12","Tanaecium","caudiculatum","Tanaecium caudiculatum"
"142","12","Tynanthus","guatemalensis","Tynanthus guatemalensis"
"143","13","Adenocalymma","dusenii","Adenocalymma dusenii"
"144","13","Adenocalymma","hatschbachii","Adenocalymma hatschbachii"
"145","13","Amphilophium","bracteatum","Amphilophium bracteatum"
"146","13","Amphilophium","dolichoides","Amphilophium dolichoides"
"147","13","Amphilophium","dusenianum","Amphilophium dusenianum"
"148","14","Adenocalymma","aspericarpum","Adenocalymma aspericarpum"
"149","14","Adenocalymma","magdalenense","Adenocalymma magdalenense"
"150","14","Amphilophium","steyermarkii","Amphilophium steyermarkii"
"151","14","Bignonia","cuneata","Bignonia cuneata"
"152","14","Bignonia","pterocalyx","Bignonia pterocalyx"
"153","15","Dolichandra","unguiculata","Dolichandra unguiculata"
"154","15","Fridericia","speciosa","Fridericia speciosa"
"155","15","Mansoa","glaziovii","Mansoa glaziovii"
"156","16","Bignonia","bracteomana","Bignonia bracteomana"
"157","16","Fridericia","nicotianiflora","Fridericia nicotianiflora"
"158","16","Tanaecium","affine","Tanaecium affine"
"159","17","Adenocalymma","magdalenense","Adenocalymma magdalenense"
"160","17","Bignonia","neouliginosa","Bignonia neouliginosa"
"161","17","Pachyptera","erythraea","Pachyptera erythraea"
"162","17","Tanaecium","exitiosum","Tanaecium exitiosum"
"163","18","Anemopaegma","paraense","Anemopaegma paraense"
"164","18","Lundia","erionema","Lundia erionema"
"165","18","Tanaecium","bilabiatum","Tanaecium bilabiatum"
"166","19","Adenocalymma","dichilum","Adenocalymma dichilum"
"167","19","Amphilophium","blanchetii","Amphilophium blanchetii"
"168","19","Lundia","gardneri","Lundia gardneri"
"169","19","Mansoa","hirsuta","Mansoa hirsuta"
"170","20","Fridericia","pearcei","Fridericia pearcei"
"171","20","Lundia","spruceana","Lundia spruceana"
"172","20","Tanaecium","xanthophyllum","Tanaecium xanthophyllum"
"173","21","Adenocalymma","dusenii","Adenocalymma dusenii"
"174","21","Adenocalymma","hatschbachii","Adenocalymma hatschbachii"
"175","21","Anemopaegma","nebulosum","Anemopaegma nebulosum"
"176","22","Adenocalymma","dugandii","Adenocalymma dugandii"
"177","22","Amphilophium","chocoense","Amphilophium chocoense"
"178","22","Tanaecium","exitiosum","Tanaecium exitiosum"
"179","23","Adenocalymma","molle","Adenocalymma molle"
"180","23","Cuspidaria","cinerea","Cuspidaria cinerea"
"181","23","Tynanthus","densiflorus","Tynanthus densiflorus"
"182","24","Adenocalymma","paulistarum","Adenocalymma paulistarum"
"183","24","Fridericia","mutabilis","Fridericia mutabilis"
"184","24","Tynanthus","micranthus","Tynanthus micranthus"
"185","25","Amphilophium","arenarium","Amphilophium arenarium"
"186","25","Amphilophium","monophyllum","Amphilophium monophyllum"
"187","25","Anemopaegma","salicifolium","Anemopaegma salicifolium"
"188","25","Fridericia","carichanensis","Fridericia carichanensis"
"189","25","Pleonotoma","dendrotricha","Pleonotoma dendrotricha"
"190","25","Pleonotoma","exserta","Pleonotoma exserta"
"191","26","Adenocalymma","arthropetiolatum","Adenocalymma arthropetiolatum"
"192","26","Adenocalymma","chocoense","Adenocalymma chocoense"
"193","26","Bignonia","neouliginosa","Bignonia neouliginosa"
"194","26","Pachyptera","erythraea","Pachyptera erythraea"
"195","26","Tynanthus","croatianus","Tynanthus croatianus"
"196","27","Anemopaegma","longipetiolatum","Anemopaegma longipetiolatum"
"197","27","Fridericia","fagoides","Fridericia fagoides"
"198","27","Fridericia","whitei","Fridericia whitei"
"199","27","Tanaecium","tetramerum","Tanaecium tetramerum"
