"","Species","Area_name","Kind_pattern","Cons_Area_Max_Score","Number_Spp","Individual_Areas","Region","Geo_Area","Geo_size_class","Niche_Area","Niche_size_class"
"1","Adenocalymma ackermannii","D2CA0","Gradient",12.01492,83,110,"ESA_THDD",2608003.83419632,"Wide",0.0524911877677485,"Medium"
"2","Adenocalymma apetiolatum","D2CA0","Gradient",12.01492,83,110,"ESA_THDD",2608003.83419632,"Wide",0.0524911877677485,"Medium"
"3","Adenocalymma apparicianum","D2CA0","Gradient",12.01492,83,110,"ESA_THDD",2608003.83419632,"Wide",0.0524911877677485,"Medium"
"4","Adenocalymma aurantiacum","D2CA0","Gradient",12.01492,83,110,"ESA_THDD",2608003.83419632,"Wide",0.0524911877677485,"Medium"
"5","Adenocalymma bullatum","D2CA0","Gradient",12.01492,83,110,"ESA_THDD",2608003.83419632,"Wide",0.0524911877677485,"Medium"
"6","Adenocalymma candolleanum","D2CA0","Gradient",12.01492,83,110,"ESA_THDD",2608003.83419632,"Wide",0.0524911877677485,"Medium"
"7","Adenocalymma cinereum","D2CA0","Gradient",12.01492,83,110,"ESA_THDD",2608003.83419632,"Wide",0.0524911877677485,"Medium"
"8","Adenocalymma cristicalyx","D2CA0","Gradient",12.01492,83,110,"ESA_THDD",2608003.83419632,"Wide",0.0524911877677485,"Medium"
"9","Adenocalymma cymbalum","D2CA0","Gradient",12.01492,83,110,"ESA_THDD",2608003.83419632,"Wide",0.0524911877677485,"Medium"
"10","Adenocalymma dichilum","D2CA0","Gradient",12.01492,83,110,"ESA_THDD",2608003.83419632,"Wide",0.0524911877677485,"Medium"
"11","Adenocalymma divaricatum","D2CA0","Gradient",12.01492,83,110,"ESA_THDD",2608003.83419632,"Wide",0.0524911877677485,"Medium"
"12","Adenocalymma gibbosum","D2CA0","Gradient",12.01492,83,110,"ESA_THDD",2608003.83419632,"Wide",0.0524911877677485,"Medium"
"13","Adenocalymma grandifolium","D2CA0","Gradient",12.01492,83,110,"ESA_THDD",2608003.83419632,"Wide",0.0524911877677485,"Medium"
"14","Adenocalymma hirtum","D2CA0","Gradient",12.01492,83,110,"ESA_THDD",2608003.83419632,"Wide",0.0524911877677485,"Medium"
"15","Adenocalymma hypostictum","D2CA0","Gradient",12.01492,83,110,"ESA_THDD",2608003.83419632,"Wide",0.0524911877677485,"Medium"
"16","Adenocalymma lineare","D2CA0","Gradient",12.01492,83,110,"ESA_THDD",2608003.83419632,"Wide",0.0524911877677485,"Medium"
"17","Adenocalymma macrophyllum","D2CA0","Gradient",12.01492,83,110,"ESA_THDD",2608003.83419632,"Wide",0.0524911877677485,"Medium"
"18","Adenocalymma pubescens","D2CA0","Gradient",12.01492,83,110,"ESA_THDD",2608003.83419632,"Wide",0.0524911877677485,"Medium"
"19","Adenocalymma salmoneum","D2CA0","Gradient",12.01492,83,110,"ESA_THDD",2608003.83419632,"Wide",0.0524911877677485,"Medium"
"20","Adenocalymma scabriusculum","D2CA0","Gradient",12.01492,83,110,"ESA_THDD",2608003.83419632,"Wide",0.0524911877677485,"Medium"
"21","Adenocalymma sessile","D2CA0","Gradient",12.01492,83,110,"ESA_THDD",2608003.83419632,"Wide",0.0524911877677485,"Medium"
"22","Adenocalymma subsessilifolium","D2CA0","Gradient",12.01492,83,110,"ESA_THDD",2608003.83419632,"Wide",0.0524911877677485,"Medium"
"23","Adenocalymma subspicatum","D2CA0","Gradient",12.01492,83,110,"ESA_THDD",2608003.83419632,"Wide",0.0524911877677485,"Medium"
"24","Adenocalymma trifoliatum","D2CA0","Gradient",12.01492,83,110,"ESA_THDD",2608003.83419632,"Wide",0.0524911877677485,"Medium"
"25","Adenocalymma ubatubense","D2CA0","Gradient",12.01492,83,110,"ESA_THDD",2608003.83419632,"Wide",0.0524911877677485,"Medium"
"26","Amphilophium bauhinioides","D2CA0","Gradient",12.01492,83,110,"ESA_THDD",2608003.83419632,"Wide",0.0524911877677485,"Medium"
"27","Amphilophium bracteatum","D2CA0","Gradient",12.01492,83,110,"ESA_THDD",2608003.83419632,"Wide",0.0524911877677485,"Medium"
"28","Amphilophium dolichoides","D2CA0","Gradient",12.01492,83,110,"ESA_THDD",2608003.83419632,"Wide",0.0524911877677485,"Medium"
"29","Amphilophium frutescens","D2CA0","Gradient",12.01492,83,110,"ESA_THDD",2608003.83419632,"Wide",0.0524911877677485,"Medium"
"30","Anemopaegma album","D2CA0","Gradient",12.01492,83,110,"ESA_THDD",2608003.83419632,"Wide",0.0524911877677485,"Medium"
"31","Anemopaegma citrinum","D2CA0","Gradient",12.01492,83,110,"ESA_THDD",2608003.83419632,"Wide",0.0524911877677485,"Medium"
"32","Anemopaegma goyazense","D2CA0","Gradient",12.01492,83,110,"ESA_THDD",2608003.83419632,"Wide",0.0524911877677485,"Medium"
"33","Anemopaegma heringeri","D2CA0","Gradient",12.01492,83,110,"ESA_THDD",2608003.83419632,"Wide",0.0524911877677485,"Medium"
"34","Anemopaegma hilarianum","D2CA0","Gradient",12.01492,83,110,"ESA_THDD",2608003.83419632,"Wide",0.0524911877677485,"Medium"
"35","Anemopaegma laeve","D2CA0","Gradient",12.01492,83,110,"ESA_THDD",2608003.83419632,"Wide",0.0524911877677485,"Medium"
"36","Anemopaegma scabriusculum","D2CA0","Gradient",12.01492,83,110,"ESA_THDD",2608003.83419632,"Wide",0.0524911877677485,"Medium"
"37","Anemopaegma setilobum","D2CA0","Gradient",12.01492,83,110,"ESA_THDD",2608003.83419632,"Wide",0.0524911877677485,"Medium"
"38","Anemopaegma velutinum","D2CA0","Gradient",12.01492,83,110,"ESA_THDD",2608003.83419632,"Wide",0.0524911877677485,"Medium"
"39","Bignonia costata","D2CA0","Gradient",12.01492,83,110,"ESA_THDD",2608003.83419632,"Wide",0.0524911877677485,"Medium"
"40","Cuspidaria argentea","D2CA0","Gradient",12.01492,83,110,"ESA_THDD",2608003.83419632,"Wide",0.0524911877677485,"Medium"
"41","Cuspidaria cratensis","D2CA0","Gradient",12.01492,83,110,"ESA_THDD",2608003.83419632,"Wide",0.0524911877677485,"Medium"
"42","Cuspidaria lasiantha","D2CA0","Gradient",12.01492,83,110,"ESA_THDD",2608003.83419632,"Wide",0.0524911877677485,"Medium"
"43","Cuspidaria multiflora","D2CA0","Gradient",12.01492,83,110,"ESA_THDD",2608003.83419632,"Wide",0.0524911877677485,"Medium"
"44","Cuspidaria octoptera","D2CA0","Gradient",12.01492,83,110,"ESA_THDD",2608003.83419632,"Wide",0.0524911877677485,"Medium"
"45","Dolichandra unguiculata","D2CA0","Gradient",12.01492,83,110,"ESA_THDD",2608003.83419632,"Wide",0.0524911877677485,"Medium"
"46","Fridericia bahiensis","D2CA0","Gradient",12.01492,83,110,"ESA_THDD",2608003.83419632,"Wide",0.0524911877677485,"Medium"
"47","Fridericia cuneifolia","D2CA0","Gradient",12.01492,83,110,"ESA_THDD",2608003.83419632,"Wide",0.0524911877677485,"Medium"
"48","Fridericia dispar","D2CA0","Gradient",12.01492,83,110,"ESA_THDD",2608003.83419632,"Wide",0.0524911877677485,"Medium"
"49","Fridericia elegans","D2CA0","Gradient",12.01492,83,110,"ESA_THDD",2608003.83419632,"Wide",0.0524911877677485,"Medium"
"50","Fridericia erubescens","D2CA0","Gradient",12.01492,83,110,"ESA_THDD",2608003.83419632,"Wide",0.0524911877677485,"Medium"
"51","Fridericia formosa","D2CA0","Gradient",12.01492,83,110,"ESA_THDD",2608003.83419632,"Wide",0.0524911877677485,"Medium"
"52","Fridericia leucopogon","D2CA0","Gradient",12.01492,83,110,"ESA_THDD",2608003.83419632,"Wide",0.0524911877677485,"Medium"
"53","Fridericia limae","D2CA0","Gradient",12.01492,83,110,"ESA_THDD",2608003.83419632,"Wide",0.0524911877677485,"Medium"
"54","Fridericia rego","D2CA0","Gradient",12.01492,83,110,"ESA_THDD",2608003.83419632,"Wide",0.0524911877677485,"Medium"
"55","Fridericia simplex","D2CA0","Gradient",12.01492,83,110,"ESA_THDD",2608003.83419632,"Wide",0.0524911877677485,"Medium"
"56","Fridericia subexserta","D2CA0","Gradient",12.01492,83,110,"ESA_THDD",2608003.83419632,"Wide",0.0524911877677485,"Medium"
"57","Fridericia subincana","D2CA0","Gradient",12.01492,83,110,"ESA_THDD",2608003.83419632,"Wide",0.0524911877677485,"Medium"
"58","Fridericia subverticillata","D2CA0","Gradient",12.01492,83,110,"ESA_THDD",2608003.83419632,"Wide",0.0524911877677485,"Medium"
"59","Fridericia trachyphylla","D2CA0","Gradient",12.01492,83,110,"ESA_THDD",2608003.83419632,"Wide",0.0524911877677485,"Medium"
"60","Fridericia tynanthoides","D2CA0","Gradient",12.01492,83,110,"ESA_THDD",2608003.83419632,"Wide",0.0524911877677485,"Medium"
"61","Lundia damazioi","D2CA0","Gradient",12.01492,83,110,"ESA_THDD",2608003.83419632,"Wide",0.0524911877677485,"Medium"
"62","Lundia gardneri","D2CA0","Gradient",12.01492,83,110,"ESA_THDD",2608003.83419632,"Wide",0.0524911877677485,"Medium"
"63","Lundia helicocalyx","D2CA0","Gradient",12.01492,83,110,"ESA_THDD",2608003.83419632,"Wide",0.0524911877677485,"Medium"
"64","Lundia obliqua","D2CA0","Gradient",12.01492,83,110,"ESA_THDD",2608003.83419632,"Wide",0.0524911877677485,"Medium"
"65","Lundia virginalis","D2CA0","Gradient",12.01492,83,110,"ESA_THDD",2608003.83419632,"Wide",0.0524911877677485,"Medium"
"66","Mansoa hirsuta","D2CA0","Gradient",12.01492,83,110,"ESA_THDD",2608003.83419632,"Wide",0.0524911877677485,"Medium"
"67","Mansoa hymenaea","D2CA0","Gradient",12.01492,83,110,"ESA_THDD",2608003.83419632,"Wide",0.0524911877677485,"Medium"
"68","Mansoa lanceolata","D2CA0","Gradient",12.01492,83,110,"ESA_THDD",2608003.83419632,"Wide",0.0524911877677485,"Medium"
"69","Mansoa minensis","D2CA0","Gradient",12.01492,83,110,"ESA_THDD",2608003.83419632,"Wide",0.0524911877677485,"Medium"
"70","Mansoa paganuccii","D2CA0","Gradient",12.01492,83,110,"ESA_THDD",2608003.83419632,"Wide",0.0524911877677485,"Medium"
"71","Martinella insignis","D2CA0","Gradient",12.01492,83,110,"ESA_THDD",2608003.83419632,"Wide",0.0524911877677485,"Medium"
"72","Pleonotoma castelnaei","D2CA0","Gradient",12.01492,83,110,"ESA_THDD",2608003.83419632,"Wide",0.0524911877677485,"Medium"
"73","Pleonotoma stichadenia","D2CA0","Gradient",12.01492,83,110,"ESA_THDD",2608003.83419632,"Wide",0.0524911877677485,"Medium"
"74","Tanaecium cyrtanthum","D2CA0","Gradient",12.01492,83,110,"ESA_THDD",2608003.83419632,"Wide",0.0524911877677485,"Medium"
"75","Tanaecium neobrasiliense","D2CA0","Gradient",12.01492,83,110,"ESA_THDD",2608003.83419632,"Wide",0.0524911877677485,"Medium"
"76","Tanaecium paradoxum","D2CA0","Gradient",12.01492,83,110,"ESA_THDD",2608003.83419632,"Wide",0.0524911877677485,"Medium"
"77","Tanaecium parviflorum","D2CA0","Gradient",12.01492,83,110,"ESA_THDD",2608003.83419632,"Wide",0.0524911877677485,"Medium"
"78","Tynanthus fasciculatus","D2CA0","Gradient",12.01492,83,110,"ESA_THDD",2608003.83419632,"Wide",0.0524911877677485,"Medium"
"79","Tynanthus labiatus","D2CA0","Gradient",12.01492,83,110,"ESA_THDD",2608003.83419632,"Wide",0.0524911877677485,"Medium"
"80","Xylophragma corchoroides","D2CA0","Gradient",12.01492,83,110,"ESA_THDD",2608003.83419632,"Wide",0.0524911877677485,"Medium"
"81","Xylophragma harleyi","D2CA0","Gradient",12.01492,83,110,"ESA_THDD",2608003.83419632,"Wide",0.0524911877677485,"Medium"
"82","Xylophragma heterocalyx","D2CA0","Gradient",12.01492,83,110,"ESA_THDD",2608003.83419632,"Wide",0.0524911877677485,"Medium"
"83","Xylophragma myrianthum","D2CA0","Gradient",12.01492,83,110,"ESA_THDD",2608003.83419632,"Wide",0.0524911877677485,"Medium"
"84","Adenocalymma bullatum","D2CA1","Gradient",3.11547,6,3,"ESA_Atlantic_Forest",755716.876278497,"Medium",0.0207515851863426,"Medium"
"85","Cuspidaria pulchella","D2CA1","Gradient",3.11547,6,3,"ESA_Atlantic_Forest",755716.876278497,"Medium",0.0207515851863426,"Medium"
"86","Fridericia formosa","D2CA1","Gradient",3.11547,6,3,"ESA_Atlantic_Forest",755716.876278497,"Medium",0.0207515851863426,"Medium"
"87","Lundia obliqua","D2CA1","Gradient",3.11547,6,3,"ESA_Atlantic_Forest",755716.876278497,"Medium",0.0207515851863426,"Medium"
"88","Pleonotoma fluminensis","D2CA1","Gradient",3.11547,6,3,"ESA_Atlantic_Forest",755716.876278497,"Medium",0.0207515851863426,"Medium"
"89","Tynanthus fasciculatus","D2CA1","Gradient",3.11547,6,3,"ESA_Atlantic_Forest",755716.876278497,"Medium",0.0207515851863426,"Medium"
"90","Adenocalymma mirabile","D2CA2","Gradient",2.4987,6,3,"ESA_Dry_Diagonal",656342.853354992,"Medium",0.0196387843965137,"Narrow"
"91","Adenocalymma subspicatum","D2CA2","Gradient",2.4987,6,3,"ESA_Dry_Diagonal",656342.853354992,"Medium",0.0196387843965137,"Narrow"
"92","Anemopaegma mirabile","D2CA2","Gradient",2.4987,6,3,"ESA_Dry_Diagonal",656342.853354992,"Medium",0.0196387843965137,"Narrow"
"93","Fridericia crassa","D2CA2","Gradient",2.4987,6,3,"ESA_Dry_Diagonal",656342.853354992,"Medium",0.0196387843965137,"Narrow"
"94","Fridericia pliciflora","D2CA2","Gradient",2.4987,6,3,"ESA_Dry_Diagonal",656342.853354992,"Medium",0.0196387843965137,"Narrow"
"95","Lundia helicocalyx","D2CA2","Gradient",2.4987,6,3,"ESA_Dry_Diagonal",656342.853354992,"Medium",0.0196387843965137,"Narrow"
"96","Amphilophium obovatum","D2CA3","Gradient",2.36923,4,3,"Guiana_centered",594409.012759374,"Medium",0.0632074471832607,"Medium"
"97","Amphilophium pauciflorum","D2CA3","Gradient",2.36923,4,3,"Guiana_centered",594409.012759374,"Medium",0.0632074471832607,"Medium"
"98","Fridericia grosourdyana","D2CA3","Gradient",2.36923,4,3,"Guiana_centered",594409.012759374,"Medium",0.0632074471832607,"Medium"
"99","Pleonotoma echitidea","D2CA3","Gradient",2.36923,4,3,"Guiana_centered",594409.012759374,"Medium",0.0632074471832607,"Medium"
"100","Adenocalymma allamandiflorum","D2CA4","Gradient",3.02019,7,6,"Amazonia_centered",1315131.43629747,"Medium",0.0204733188894841,"Medium"
"101","Adenocalymma gracielzae","D2CA4","Gradient",3.02019,7,6,"Amazonia_centered",1315131.43629747,"Medium",0.0204733188894841,"Medium"
"102","Adenocalymma magnificum","D2CA4","Gradient",3.02019,7,6,"Amazonia_centered",1315131.43629747,"Medium",0.0204733188894841,"Medium"
"103","Adenocalymma velutinum","D2CA4","Gradient",3.02019,7,6,"Amazonia_centered",1315131.43629747,"Medium",0.0204733188894841,"Medium"
"104","Mansoa angustidens","D2CA4","Gradient",3.02019,7,6,"Amazonia_centered",1315131.43629747,"Medium",0.0204733188894841,"Medium"
"105","Pleonotoma bracteata","D2CA4","Gradient",3.02019,7,6,"Amazonia_centered",1315131.43629747,"Medium",0.0204733188894841,"Medium"
"106","Pyrostegia millingtonioides","D2CA4","Gradient",3.02019,7,6,"Amazonia_centered",1315131.43629747,"Medium",0.0204733188894841,"Medium"
"107","Adenocalymma ackermannii","D2CA5","Gradient",4.6317,9,4,"ESA_Dry_Diagonal",569673.667953936,"Medium",0.021425096263534,"Medium"
"108","Adenocalymma dichilum","D2CA5","Gradient",4.6317,9,4,"ESA_Dry_Diagonal",569673.667953936,"Medium",0.021425096263534,"Medium"
"109","Adenocalymma hypostictum","D2CA5","Gradient",4.6317,9,4,"ESA_Dry_Diagonal",569673.667953936,"Medium",0.021425096263534,"Medium"
"110","Amphilophium blanchetii","D2CA5","Gradient",4.6317,9,4,"ESA_Dry_Diagonal",569673.667953936,"Medium",0.021425096263534,"Medium"
"111","Amphilophium perbracteatum","D2CA5","Gradient",4.6317,9,4,"ESA_Dry_Diagonal",569673.667953936,"Medium",0.021425096263534,"Medium"
"112","Lundia gardneri","D2CA5","Gradient",4.6317,9,4,"ESA_Dry_Diagonal",569673.667953936,"Medium",0.021425096263534,"Medium"
"113","Mansoa ivanii","D2CA5","Gradient",4.6317,9,4,"ESA_Dry_Diagonal",569673.667953936,"Medium",0.021425096263534,"Medium"
"114","Mansoa longicalyx","D2CA5","Gradient",4.6317,9,4,"ESA_Dry_Diagonal",569673.667953936,"Medium",0.021425096263534,"Medium"
"115","Xylophragma harleyi","D2CA5","Gradient",4.6317,9,4,"ESA_Dry_Diagonal",569673.667953936,"Medium",0.021425096263534,"Medium"
"116","Adenocalymma divaricatum","D2CA6","Core",2.68409,4,2,"ESA_THDD",1989552.79382682,"Wide",0.0447681581022906,"Medium"
"117","Anemopaegma gracile","D2CA6","Core",2.68409,4,2,"ESA_THDD",1989552.79382682,"Wide",0.0447681581022906,"Medium"
"118","Fridericia erubescens","D2CA6","Core",2.68409,4,2,"ESA_THDD",1989552.79382682,"Wide",0.0447681581022906,"Medium"
"119","Pleonotoma stichadenia","D2CA6","Core",2.68409,4,2,"ESA_THDD",1989552.79382682,"Wide",0.0447681581022906,"Medium"
"120","Bignonia lilacina","D2CA7","Core",3.14523,4,2,"Amazonia_centered",7517417.49329857,"Wide",0.320134536627759,"Wide"
"121","Cuspidaria inaequalis","D2CA7","Core",3.14523,4,2,"Amazonia_centered",7517417.49329857,"Wide",0.320134536627759,"Wide"
"122","Lundia densiflora","D2CA7","Core",3.14523,4,2,"Amazonia_centered",7517417.49329857,"Wide",0.320134536627759,"Wide"
"123","Tanaecium bilabiatum","D2CA7","Core",3.14523,4,2,"Amazonia_centered",7517417.49329857,"Wide",0.320134536627759,"Wide"
"124","Adenocalymma ackermannii","D2CA8","Gradient",2.27446,4,2,"ESA_THDD",294893.8396232,"Narrow",0.0178757080667363,"Narrow"
"125","Adenocalymma flavum","D2CA8","Gradient",2.27446,4,2,"ESA_THDD",294893.8396232,"Narrow",0.0178757080667363,"Narrow"
"126","Adenocalymma hypostictum","D2CA8","Gradient",2.27446,4,2,"ESA_THDD",294893.8396232,"Narrow",0.0178757080667363,"Narrow"
"127","Martinella insignis","D2CA8","Gradient",2.27446,4,2,"ESA_THDD",294893.8396232,"Narrow",0.0178757080667363,"Narrow"
"128","Adenocalymma coriaceum","D2CA9","Core",2.57805,3,1,"ESA_THDD",977094.746788352,"Medium",0.0309050226553455,"Medium"
"129","Anemopaegma citrinum","D2CA9","Core",2.57805,3,1,"ESA_THDD",977094.746788352,"Medium",0.0309050226553455,"Medium"
"130","Cuspidaria lasiantha","D2CA9","Core",2.57805,3,1,"ESA_THDD",977094.746788352,"Medium",0.0309050226553455,"Medium"
"131","Adenocalymma album","D2CA10","Gradient",3.89208,6,3,"Guiana_centered",276080.819560139,"Narrow",0.0131396555679765,"Narrow"
"132","Adenocalymma saulense","D2CA10","Gradient",3.89208,6,3,"Guiana_centered",276080.819560139,"Narrow",0.0131396555679765,"Narrow"
"133","Amphilophium cremersii","D2CA10","Gradient",3.89208,6,3,"Guiana_centered",276080.819560139,"Narrow",0.0131396555679765,"Narrow"
"134","Anemopaegma granvillei","D2CA10","Gradient",3.89208,6,3,"Guiana_centered",276080.819560139,"Narrow",0.0131396555679765,"Narrow"
"135","Fridericia oligantha","D2CA10","Gradient",3.89208,6,3,"Guiana_centered",276080.819560139,"Narrow",0.0131396555679765,"Narrow"
"136","Tynanthus sastrei","D2CA10","Gradient",3.89208,6,3,"Guiana_centered",276080.819560139,"Narrow",0.0131396555679765,"Narrow"
"137","Adenocalymma bracteatum","D2CA11","Core",2.62622,3,1,"ESA_THDD",3132562.10435662,"Wide",0.0348513479041108,"Medium"
"138","Anemopaegma arvense","D2CA11","Core",2.62622,3,1,"ESA_THDD",3132562.10435662,"Wide",0.0348513479041108,"Medium"
"139","Fridericia craterophora","D2CA11","Core",2.62622,3,1,"ESA_THDD",3132562.10435662,"Wide",0.0348513479041108,"Medium"
"140","Fridericia floribunda","D2CA12","Core",2.40245,3,2,"Mesoamerica",549724.100602109,"Medium",0.0655805263620074,"Medium"
"141","Tanaecium caudiculatum","D2CA12","Core",2.40245,3,2,"Mesoamerica",549724.100602109,"Medium",0.0655805263620074,"Medium"
"142","Tynanthus guatemalensis","D2CA12","Core",2.40245,3,2,"Mesoamerica",549724.100602109,"Medium",0.0655805263620074,"Medium"
"143","Adenocalymma dusenii","D2CA13","Core",3.75566,5,1,"ESA_Atlantic_Forest",365172.350516687,"Narrow",0.0159530221137005,"Narrow"
"144","Adenocalymma hatschbachii","D2CA13","Core",3.75566,5,1,"ESA_Atlantic_Forest",365172.350516687,"Narrow",0.0159530221137005,"Narrow"
"145","Amphilophium bracteatum","D2CA13","Core",3.75566,5,1,"ESA_Atlantic_Forest",365172.350516687,"Narrow",0.0159530221137005,"Narrow"
"146","Amphilophium dolichoides","D2CA13","Core",3.75566,5,1,"ESA_Atlantic_Forest",365172.350516687,"Narrow",0.0159530221137005,"Narrow"
"147","Amphilophium dusenianum","D2CA13","Core",3.75566,5,1,"ESA_Atlantic_Forest",365172.350516687,"Narrow",0.0159530221137005,"Narrow"
"148","Adenocalymma aspericarpum","D2CA14","Gradient",2.85821,5,2,"Northern_Andes",547960.541832476,"Medium",0.133414206887842,"Wide"
"149","Adenocalymma magdalenense","D2CA14","Gradient",2.85821,5,2,"Northern_Andes",547960.541832476,"Medium",0.133414206887842,"Wide"
"150","Amphilophium steyermarkii","D2CA14","Gradient",2.85821,5,2,"Northern_Andes",547960.541832476,"Medium",0.133414206887842,"Wide"
"151","Bignonia cuneata","D2CA14","Gradient",2.85821,5,2,"Northern_Andes",547960.541832476,"Medium",0.133414206887842,"Wide"
"152","Bignonia pterocalyx","D2CA14","Gradient",2.85821,5,2,"Northern_Andes",547960.541832476,"Medium",0.133414206887842,"Wide"
"153","Dolichandra unguiculata","D2CA15","Core",2.37116,3,1,"ESA_Atlantic_Forest",999304.989071594,"Medium",0.0303814060724503,"Medium"
"154","Fridericia speciosa","D2CA15","Core",2.37116,3,1,"ESA_Atlantic_Forest",999304.989071594,"Medium",0.0303814060724503,"Medium"
"155","Mansoa glaziovii","D2CA15","Core",2.37116,3,1,"ESA_Atlantic_Forest",999304.989071594,"Medium",0.0303814060724503,"Medium"
"156","Bignonia bracteomana","D2CA16","Core",2.60441,3,1,"Amazonia_centered",2133404.73848054,"Wide",0.26191138864671,"Wide"
"157","Fridericia nicotianiflora","D2CA16","Core",2.60441,3,1,"Amazonia_centered",2133404.73848054,"Wide",0.26191138864671,"Wide"
"158","Tanaecium affine","D2CA16","Core",2.60441,3,1,"Amazonia_centered",2133404.73848054,"Wide",0.26191138864671,"Wide"
"159","Adenocalymma magdalenense","D2CA17","Gradient",2.39286,4,2,"Northern_Andes",430891.81275128,"Medium",0.152131468919009,"Wide"
"160","Bignonia neouliginosa","D2CA17","Gradient",2.39286,4,2,"Northern_Andes",430891.81275128,"Medium",0.152131468919009,"Wide"
"161","Pachyptera erythraea","D2CA17","Gradient",2.39286,4,2,"Northern_Andes",430891.81275128,"Medium",0.152131468919009,"Wide"
"162","Tanaecium exitiosum","D2CA17","Gradient",2.39286,4,2,"Northern_Andes",430891.81275128,"Medium",0.152131468919009,"Wide"
"163","Anemopaegma paraense","D2CA18","Core",2.58658,3,1,"Amazonia_centered",6215069.52063856,"Wide",0.23153101958182,"Wide"
"164","Lundia erionema","D2CA18","Core",2.58658,3,1,"Amazonia_centered",6215069.52063856,"Wide",0.23153101958182,"Wide"
"165","Tanaecium bilabiatum","D2CA18","Core",2.58658,3,1,"Amazonia_centered",6215069.52063856,"Wide",0.23153101958182,"Wide"
"166","Adenocalymma dichilum","D2CA19","Core",2.98744,4,1,"ESA_Dry_Diagonal",624443.239629722,"Medium",0.0245278547481337,"Medium"
"167","Amphilophium blanchetii","D2CA19","Core",2.98744,4,1,"ESA_Dry_Diagonal",624443.239629722,"Medium",0.0245278547481337,"Medium"
"168","Lundia gardneri","D2CA19","Core",2.98744,4,1,"ESA_Dry_Diagonal",624443.239629722,"Medium",0.0245278547481337,"Medium"
"169","Mansoa hirsuta","D2CA19","Core",2.98744,4,1,"ESA_Dry_Diagonal",624443.239629722,"Medium",0.0245278547481337,"Medium"
"170","Fridericia pearcei","D2CA20","Core",2.78234,3,1,"Amazonia_centered",2744486.97635186,"Wide",0.288433824222901,"Wide"
"171","Lundia spruceana","D2CA20","Core",2.78234,3,1,"Amazonia_centered",2744486.97635186,"Wide",0.288433824222901,"Wide"
"172","Tanaecium xanthophyllum","D2CA20","Core",2.78234,3,1,"Amazonia_centered",2744486.97635186,"Wide",0.288433824222901,"Wide"
"173","Adenocalymma dusenii","D2CA21","Core",2.91959,3,1,"ESA_Atlantic_Forest",250300.779979042,"Narrow",0.0154740298555698,"Narrow"
"174","Adenocalymma hatschbachii","D2CA21","Core",2.91959,3,1,"ESA_Atlantic_Forest",250300.779979042,"Narrow",0.0154740298555698,"Narrow"
"175","Anemopaegma nebulosum","D2CA21","Core",2.91959,3,1,"ESA_Atlantic_Forest",250300.779979042,"Narrow",0.0154740298555698,"Narrow"
"176","Adenocalymma dugandii","D2CA22","Core",2.42647,3,1,"Northern_Andes",322861.153806796,"Narrow",0.154209459154632,"Wide"
"177","Amphilophium chocoense","D2CA22","Core",2.42647,3,1,"Northern_Andes",322861.153806796,"Narrow",0.154209459154632,"Wide"
"178","Tanaecium exitiosum","D2CA22","Core",2.42647,3,1,"Northern_Andes",322861.153806796,"Narrow",0.154209459154632,"Wide"
"179","Adenocalymma molle","D2CA23","Core",2.35,3,1,"Amazonia_centered",245782.77686729,"Narrow",0.00639239959480869,"Narrow"
"180","Cuspidaria cinerea","D2CA23","Core",2.35,3,1,"Amazonia_centered",245782.77686729,"Narrow",0.00639239959480869,"Narrow"
"181","Tynanthus densiflorus","D2CA23","Core",2.35,3,1,"Amazonia_centered",245782.77686729,"Narrow",0.00639239959480869,"Narrow"
"182","Adenocalymma paulistarum","D2CA24","Core",2.7599,3,1,"ESA_Atlantic_Forest",1082528.94619386,"Medium",0.0196009626167523,"Narrow"
"183","Fridericia mutabilis","D2CA24","Core",2.7599,3,1,"ESA_Atlantic_Forest",1082528.94619386,"Medium",0.0196009626167523,"Narrow"
"184","Tynanthus micranthus","D2CA24","Core",2.7599,3,1,"ESA_Atlantic_Forest",1082528.94619386,"Medium",0.0196009626167523,"Narrow"
"185","Amphilophium arenarium","D2CA25","Gradient",3.42406,6,2,"Guiana_centered",441522.542136524,"Medium",0.0570343279608602,"Medium"
"186","Amphilophium monophyllum","D2CA25","Gradient",3.42406,6,2,"Guiana_centered",441522.542136524,"Medium",0.0570343279608602,"Medium"
"187","Anemopaegma salicifolium","D2CA25","Gradient",3.42406,6,2,"Guiana_centered",441522.542136524,"Medium",0.0570343279608602,"Medium"
"188","Fridericia carichanensis","D2CA25","Gradient",3.42406,6,2,"Guiana_centered",441522.542136524,"Medium",0.0570343279608602,"Medium"
"189","Pleonotoma dendrotricha","D2CA25","Gradient",3.42406,6,2,"Guiana_centered",441522.542136524,"Medium",0.0570343279608602,"Medium"
"190","Pleonotoma exserta","D2CA25","Gradient",3.42406,6,2,"Guiana_centered",441522.542136524,"Medium",0.0570343279608602,"Medium"
"191","Adenocalymma arthropetiolatum","D2CA26","Core",3.31823,5,1,"Northern_Andes",266501.178393279,"Narrow",0.110273605813496,"Medium"
"192","Adenocalymma chocoense","D2CA26","Core",3.31823,5,1,"Northern_Andes",266501.178393279,"Narrow",0.110273605813496,"Medium"
"193","Bignonia neouliginosa","D2CA26","Core",3.31823,5,1,"Northern_Andes",266501.178393279,"Narrow",0.110273605813496,"Medium"
"194","Pachyptera erythraea","D2CA26","Core",3.31823,5,1,"Northern_Andes",266501.178393279,"Narrow",0.110273605813496,"Medium"
"195","Tynanthus croatianus","D2CA26","Core",3.31823,5,1,"Northern_Andes",266501.178393279,"Narrow",0.110273605813496,"Medium"
"196","Anemopaegma longipetiolatum","D2CA27","Gradient",2.49574,4,1,"ESA_THDD",655942.132611053,"Medium",0.0435622197221133,"Medium"
"197","Fridericia fagoides","D2CA27","Gradient",2.49574,4,1,"ESA_THDD",655942.132611053,"Medium",0.0435622197221133,"Medium"
"198","Fridericia whitei","D2CA27","Gradient",2.49574,4,1,"ESA_THDD",655942.132611053,"Medium",0.0435622197221133,"Medium"
"199","Tanaecium tetramerum","D2CA27","Gradient",2.49574,4,1,"ESA_THDD",655942.132611053,"Medium",0.0435622197221133,"Medium"
