,Area_name,,Genero,epiteto,Especies
1,D1CA0,,Adenocalymma,bullatum,
2,D1CA0,,Adenocalymma,grandifolium,
3,D1CA0,,Adenocalymma,trifoliatum,
4,D1CA0,,Bignonia,costata,
5,D1CA0,,Fridericia,leucopogon,
6,D1CA0,,Lundia,damazioi,
7,D1CA0,,Tynanthus,fasciculatus,
8,D1CA1,,Amphilophium,monophyllum,
9,D1CA1,,Anemopaegma,salicifolium,
10,D1CA1,,Pleonotoma,exserta,
11,D1CA2,,Adenocalymma,aurantiacum,
12,D1CA2,,Adenocalymma,sessile,
13,D1CA2,,Mansoa,minensis,
14,D1CA3,,Adenocalymma,cinereum,
15,D1CA3,,Adenocalymma,macrophyllum,
16,D1CA3,,Adenocalymma,salmoneum,
17,D1CA3,,Adenocalymma,sessile,
18,D1CA3,,Adenocalymma,subsessilifolium,
19,D1CA3,,Anemopaegma,setilobum,
20,D1CA3,,Fridericia,trachyphylla,
21,D1CA4,,Adenocalymma,album,
22,D1CA4,,Adenocalymma,saulense,
23,D1CA4,,Anemopaegma,granvillei,
24,D1CA4,,Tynanthus,sastrei,
25,D1CA5,,Adenocalymma,bullatum,
26,D1CA5,,Adenocalymma,ubatubense,
27,D1CA5,,Anemopaegma,pachyphyllum,
28,D1CA5,,Bignonia,costata,
29,D1CA6,,Amphilophium,perbracteatum,
30,D1CA6,,Mansoa,ivanii,
31,D1CA6,,Mansoa,longicalyx,
32,D1CA7,,Adenocalymma,molle,
33,D1CA7,,Amphilophium,reticulatum,
34,D1CA7,,Tynanthus,densiflorus,
35,D1CA8,,Adenocalymma,bullatum,
36,D1CA8,,Bignonia,costata,
37,D1CA8,,Fridericia,elegans,
38,D1CA8,,Fridericia,subexserta,
39,D1CA8,,Fridericia,subverticillata,
40,D1CA9,,Adenocalymma,apetiolatum,
41,D1CA9,,Adenocalymma,hirtum,
42,D1CA9,,Adenocalymma,lineare,
43,D1CA9,,Martinella,insignis,
44,D1CA9,,Tynanthus,espiritosantensis,
45,D2CA0,0,Adenocalymma,ackermannii,Adenocalymma ackermannii
46,D2CA0,0,Adenocalymma,apetiolatum,Adenocalymma apetiolatum
47,D2CA0,0,Adenocalymma,apparicianum,Adenocalymma apparicianum
48,D2CA0,0,Adenocalymma,aurantiacum,Adenocalymma aurantiacum
49,D2CA0,0,Adenocalymma,bullatum,Adenocalymma bullatum
50,D2CA0,0,Adenocalymma,candolleanum,Adenocalymma candolleanum
51,D2CA0,0,Adenocalymma,cinereum,Adenocalymma cinereum
52,D2CA0,0,Adenocalymma,cristicalyx,Adenocalymma cristicalyx
53,D2CA0,0,Adenocalymma,cymbalum,Adenocalymma cymbalum
54,D2CA0,0,Adenocalymma,dichilum,Adenocalymma dichilum
55,D2CA0,0,Adenocalymma,divaricatum,Adenocalymma divaricatum
56,D2CA0,0,Adenocalymma,gibbosum,Adenocalymma gibbosum
57,D2CA0,0,Adenocalymma,grandifolium,Adenocalymma grandifolium
58,D2CA0,0,Adenocalymma,hirtum,Adenocalymma hirtum
59,D2CA0,0,Adenocalymma,hypostictum,Adenocalymma hypostictum
60,D2CA0,0,Adenocalymma,lineare,Adenocalymma lineare
61,D2CA0,0,Adenocalymma,macrophyllum,Adenocalymma macrophyllum
62,D2CA0,0,Adenocalymma,pubescens,Adenocalymma pubescens
63,D2CA0,0,Adenocalymma,salmoneum,Adenocalymma salmoneum
64,D2CA0,0,Adenocalymma,scabriusculum,Adenocalymma scabriusculum
65,D2CA0,0,Adenocalymma,sessile,Adenocalymma sessile
66,D2CA0,0,Adenocalymma,subsessilifolium,Adenocalymma subsessilifolium
67,D2CA0,0,Adenocalymma,subspicatum,Adenocalymma subspicatum
68,D2CA0,0,Adenocalymma,trifoliatum,Adenocalymma trifoliatum
69,D2CA0,0,Adenocalymma,ubatubense,Adenocalymma ubatubense
70,D2CA0,0,Amphilophium,bauhinioides,Amphilophium bauhinioides
71,D2CA0,0,Amphilophium,bracteatum,Amphilophium bracteatum
72,D2CA0,0,Amphilophium,dolichoides,Amphilophium dolichoides
73,D2CA0,0,Amphilophium,frutescens,Amphilophium frutescens
74,D2CA0,0,Anemopaegma,album,Anemopaegma album
75,D2CA0,0,Anemopaegma,citrinum,Anemopaegma citrinum
76,D2CA0,0,Anemopaegma,goyazense,Anemopaegma goyazense
77,D2CA0,0,Anemopaegma,heringeri,Anemopaegma heringeri
78,D2CA0,0,Anemopaegma,hilarianum,Anemopaegma hilarianum
79,D2CA0,0,Anemopaegma,laeve,Anemopaegma laeve
80,D2CA0,0,Anemopaegma,scabriusculum,Anemopaegma scabriusculum
81,D2CA0,0,Anemopaegma,setilobum,Anemopaegma setilobum
82,D2CA0,0,Anemopaegma,velutinum,Anemopaegma velutinum
83,D2CA0,0,Bignonia,costata,Bignonia costata
84,D2CA0,0,Cuspidaria,argentea,Cuspidaria argentea
85,D2CA0,0,Cuspidaria,cratensis,Cuspidaria cratensis
86,D2CA0,0,Cuspidaria,lasiantha,Cuspidaria lasiantha
87,D2CA0,0,Cuspidaria,multiflora,Cuspidaria multiflora
88,D2CA0,0,Cuspidaria,octoptera,Cuspidaria octoptera
89,D2CA0,0,Dolichandra,unguiculata,Dolichandra unguiculata
90,D2CA0,0,Fridericia,bahiensis,Fridericia bahiensis
91,D2CA0,0,Fridericia,cuneifolia,Fridericia cuneifolia
92,D2CA0,0,Fridericia,dispar,Fridericia dispar
93,D2CA0,0,Fridericia,elegans,Fridericia elegans
94,D2CA0,0,Fridericia,erubescens,Fridericia erubescens
95,D2CA0,0,Fridericia,formosa,Fridericia formosa
96,D2CA0,0,Fridericia,leucopogon,Fridericia leucopogon
97,D2CA0,0,Fridericia,limae,Fridericia limae
98,D2CA0,0,Fridericia,rego,Fridericia rego
99,D2CA0,0,Fridericia,simplex,Fridericia simplex
100,D2CA0,0,Fridericia,subexserta,Fridericia subexserta
101,D2CA0,0,Fridericia,subincana,Fridericia subincana
102,D2CA0,0,Fridericia,subverticillata,Fridericia subverticillata
103,D2CA0,0,Fridericia,trachyphylla,Fridericia trachyphylla
104,D2CA0,0,Fridericia,tynanthoides,Fridericia tynanthoides
105,D2CA0,0,Lundia,damazioi,Lundia damazioi
106,D2CA0,0,Lundia,gardneri,Lundia gardneri
107,D2CA0,0,Lundia,helicocalyx,Lundia helicocalyx
108,D2CA0,0,Lundia,obliqua,Lundia obliqua
109,D2CA0,0,Lundia,virginalis,Lundia virginalis
110,D2CA0,0,Mansoa,hirsuta,Mansoa hirsuta
111,D2CA0,0,Mansoa,hymenaea,Mansoa hymenaea
112,D2CA0,0,Mansoa,lanceolata,Mansoa lanceolata
113,D2CA0,0,Mansoa,minensis,Mansoa minensis
114,D2CA0,0,Mansoa,paganuccii,Mansoa paganuccii
115,D2CA0,0,Martinella,insignis,Martinella insignis
116,D2CA0,0,Pleonotoma,castelnaei,Pleonotoma castelnaei
117,D2CA0,0,Pleonotoma,stichadenia,Pleonotoma stichadenia
118,D2CA0,0,Tanaecium,cyrtanthum,Tanaecium cyrtanthum
119,D2CA0,0,Tanaecium,neobrasiliense,Tanaecium neobrasiliense
120,D2CA0,0,Tanaecium,paradoxum,Tanaecium paradoxum
121,D2CA0,0,Tanaecium,parviflorum,Tanaecium parviflorum
122,D2CA0,0,Tynanthus,fasciculatus,Tynanthus fasciculatus
123,D2CA0,0,Tynanthus,labiatus,Tynanthus labiatus
124,D2CA0,0,Xylophragma,corchoroides,Xylophragma corchoroides
125,D2CA0,0,Xylophragma,harleyi,Xylophragma harleyi
126,D2CA0,0,Xylophragma,heterocalyx,Xylophragma heterocalyx
127,D2CA0,0,Xylophragma,myrianthum,Xylophragma myrianthum
128,D2CA1,1,Adenocalymma,bullatum,Adenocalymma bullatum
129,D2CA1,1,Cuspidaria,pulchella,Cuspidaria pulchella
130,D2CA1,1,Fridericia,formosa,Fridericia formosa
131,D2CA1,1,Lundia,obliqua,Lundia obliqua
132,D2CA1,1,Pleonotoma,fluminensis,Pleonotoma fluminensis
133,D2CA1,1,Tynanthus,fasciculatus,Tynanthus fasciculatus
134,D2CA2,2,Adenocalymma,mirabile,Adenocalymma mirabile
135,D2CA2,2,Adenocalymma,subspicatum,Adenocalymma subspicatum
136,D2CA2,2,Anemopaegma,mirabile,Anemopaegma mirabile
137,D2CA2,2,Fridericia,crassa,Fridericia crassa
138,D2CA2,2,Fridericia,pliciflora,Fridericia pliciflora
139,D2CA2,2,Lundia,helicocalyx,Lundia helicocalyx
140,D2CA3,2,Amphilophium,obovatum,Amphilophium obovatum
141,D2CA3,3,Amphilophium,pauciflorum,Amphilophium pauciflorum
142,D2CA3,3,Fridericia,grosourdyana,Fridericia grosourdyana
143,D2CA3,3,Pleonotoma,echitidea,Pleonotoma echitidea
144,D2CA4,4,Adenocalymma,allamandiflorum,Adenocalymma allamandiflorum
145,D2CA4,4,Adenocalymma,gracielzae,Adenocalymma gracielzae
146,D2CA4,4,Adenocalymma,magnificum,Adenocalymma magnificum
147,D2CA4,4,Adenocalymma,velutinum,Adenocalymma velutinum
148,D2CA4,3,Mansoa,angustidens,Mansoa angustidens
149,D2CA4,3,Pleonotoma,bracteata,Pleonotoma bracteata
150,D2CA4,3,Pyrostegia,millingtonioides,Pyrostegia millingtonioides
151,D2CA5,3,Adenocalymma,ackermannii,Adenocalymma ackermannii
152,D2CA5,3,Adenocalymma,dichilum,Adenocalymma dichilum
153,D2CA5,3,Adenocalymma,hypostictum,Adenocalymma hypostictum
154,D2CA5,3,Amphilophium,blanchetii,Amphilophium blanchetii
155,D2CA5,3,Amphilophium,perbracteatum,Amphilophium perbracteatum
156,D2CA5,3,Lundia,gardneri,Lundia gardneri
157,D2CA5,3,Mansoa,ivanii,Mansoa ivanii
158,D2CA5,3,Mansoa,longicalyx,Mansoa longicalyx
159,D2CA5,3,Xylophragma,harleyi,Xylophragma harleyi
160,D2CA6,3,Adenocalymma,divaricatum,Adenocalymma divaricatum
161,D2CA6,3,Anemopaegma,gracile,Anemopaegma gracile
162,D2CA6,3,Fridericia,erubescens,Fridericia erubescens
163,D2CA6,3,Pleonotoma,stichadenia,Pleonotoma stichadenia
164,D2CA7,3,Bignonia,lilacina,Bignonia lilacina
165,D2CA7,2,Cuspidaria,inaequalis,Cuspidaria inaequalis
166,D2CA7,2,Lundia,densiflora,Lundia densiflora
167,D2CA7,2,Tanaecium,bilabiatum,Tanaecium bilabiatum
168,D2CA8,2,Adenocalymma,ackermannii,Adenocalymma ackermannii
169,D2CA8,2,Adenocalymma,flavum,Adenocalymma flavum
170,D2CA8,2,Adenocalymma,hypostictum,Adenocalymma hypostictum
171,D2CA8,2,Martinella,insignis,Martinella insignis
172,D2CA9,2,Adenocalymma,coriaceum,Adenocalymma coriaceum
173,D2CA9,2,Anemopaegma,citrinum,Anemopaegma citrinum
174,D2CA9,2,Cuspidaria,lasiantha,Cuspidaria lasiantha
175,D2CA10,2,Adenocalymma,album,Adenocalymma album
176,D2CA10,2,Adenocalymma,saulense,Adenocalymma saulense
177,D2CA10,2,Amphilophium,cremersii,Amphilophium cremersii
178,D2CA10,2,Anemopaegma,granvillei,Anemopaegma granvillei
179,D2CA10,2,Fridericia,oligantha,Fridericia oligantha
180,D2CA10,2,Tynanthus,sastrei,Tynanthus sastrei
181,D2CA11,2,Adenocalymma,bracteatum,Adenocalymma bracteatum
182,D2CA11,2,Anemopaegma,arvense,Anemopaegma arvense
183,D2CA11,2,Fridericia,craterophora,Fridericia craterophora
184,D2CA12,2,Fridericia,floribunda,Fridericia floribunda
185,D2CA12,2,Tanaecium,caudiculatum,Tanaecium caudiculatum
186,D2CA12,,Tynanthus,guatemalensis,Tynanthus guatemalensis
187,D2CA13,,Adenocalymma,dusenii,Adenocalymma dusenii
188,D2CA13,,Adenocalymma,hatschbachii,Adenocalymma hatschbachii
189,D2CA13,,Amphilophium,bracteatum,Amphilophium bracteatum
190,D2CA13,,Amphilophium,dolichoides,Amphilophium dolichoides
191,D2CA13,,Amphilophium,dusenianum,Amphilophium dusenianum
192,D2CA14,,Adenocalymma,aspericarpum,Adenocalymma aspericarpum
193,D2CA14,,Adenocalymma,magdalenense,Adenocalymma magdalenense
194,D2CA14,,Amphilophium,steyermarkii,Amphilophium steyermarkii
195,D2CA14,,Bignonia,cuneata,Bignonia cuneata
196,D2CA14,,Bignonia,pterocalyx,Bignonia pterocalyx
197,D2CA15,,Dolichandra,unguiculata,Dolichandra unguiculata
198,D2CA15,,Fridericia,speciosa,Fridericia speciosa
199,D2CA15,,Mansoa,glaziovii,Mansoa glaziovii
200,D2CA16,,Bignonia,bracteomana,Bignonia bracteomana
201,D2CA16,,Fridericia,nicotianiflora,Fridericia nicotianiflora
202,D2CA16,,Tanaecium,affine,Tanaecium affine
203,D2CA17,,Adenocalymma,magdalenense,Adenocalymma magdalenense
204,D2CA17,,Bignonia,neouliginosa,Bignonia neouliginosa
205,D2CA17,,Pachyptera,erythraea,Pachyptera erythraea
206,D2CA17,,Tanaecium,exitiosum,Tanaecium exitiosum
207,D2CA18,,Anemopaegma,paraense,Anemopaegma paraense
208,D2CA18,,Lundia,erionema,Lundia erionema
209,D2CA18,,Tanaecium,bilabiatum,Tanaecium bilabiatum
210,D2CA19,,Adenocalymma,dichilum,Adenocalymma dichilum
211,D2CA19,,Amphilophium,blanchetii,Amphilophium blanchetii
212,D2CA19,,Lundia,gardneri,Lundia gardneri
213,D2CA19,,Mansoa,hirsuta,Mansoa hirsuta
214,D2CA20,,Fridericia,pearcei,Fridericia pearcei
215,D2CA20,,Lundia,spruceana,Lundia spruceana
216,D2CA20,,Tanaecium,xanthophyllum,Tanaecium xanthophyllum
217,D2CA21,,Adenocalymma,dusenii,Adenocalymma dusenii
218,D2CA21,,Adenocalymma,hatschbachii,Adenocalymma hatschbachii
219,D2CA21,,Anemopaegma,nebulosum,Anemopaegma nebulosum
220,D2CA22,,Adenocalymma,dugandii,Adenocalymma dugandii
221,D2CA22,,Amphilophium,chocoense,Amphilophium chocoense
222,D2CA22,,Tanaecium,exitiosum,Tanaecium exitiosum
223,D2CA23,,Adenocalymma,molle,Adenocalymma molle
224,D2CA23,,Cuspidaria,cinerea,Cuspidaria cinerea
225,D2CA23,,Tynanthus,densiflorus,Tynanthus densiflorus
226,D2CA24,,Adenocalymma,paulistarum,Adenocalymma paulistarum
227,D2CA24,,Fridericia,mutabilis,Fridericia mutabilis
228,D2CA24,,Tynanthus,micranthus,Tynanthus micranthus
229,D2CA25,,Amphilophium,arenarium,Amphilophium arenarium
230,D2CA25,,Amphilophium,monophyllum,Amphilophium monophyllum
231,D2CA25,,Anemopaegma,salicifolium,Anemopaegma salicifolium
232,D2CA25,,Fridericia,carichanensis,Fridericia carichanensis
233,D2CA25,,Pleonotoma,dendrotricha,Pleonotoma dendrotricha
234,D2CA25,,Pleonotoma,exserta,Pleonotoma exserta
235,D2CA26,,Adenocalymma,arthropetiolatum,Adenocalymma arthropetiolatum
236,D2CA26,,Adenocalymma,chocoense,Adenocalymma chocoense
237,D2CA26,,Bignonia,neouliginosa,Bignonia neouliginosa
238,D2CA26,,Pachyptera,erythraea,Pachyptera erythraea
239,D2CA26,,Tynanthus,croatianus,Tynanthus croatianus
240,D2CA27,,Anemopaegma,longipetiolatum,Anemopaegma longipetiolatum
241,D2CA27,,Fridericia,fagoides,Fridericia fagoides
242,D2CA27,,Fridericia,whitei,Fridericia whitei
243,D2CA27,,Tanaecium,tetramerum,Tanaecium tetramerum
244,D3CA0,,Adenocalymma,bracteosum,
245,D3CA0,,Adenocalymma,impressum,
246,D3CA0,,Adenocalymma,schomburgkii,
247,D3CA0,,Amphilophium,granulosum,
248,D3CA0,,Amphilophium,racemosum,
249,D3CA0,,Anemopaegma,paraense,
250,D3CA0,,Bignonia,lilacina,
251,D3CA0,,Bignonia,nocturna,
252,D3CA0,,Cuspidaria,inaequalis,
253,D3CA0,,Fridericia,fanshawei,
254,D3CA0,,Fridericia,nigrescens,
255,D3CA0,,Fridericia,prancei,
256,D3CA0,,Fridericia,tuberculata,
257,D3CA0,,Lundia,densiflora,
258,D3CA0,,Lundia,erionema,
259,D3CA0,,Pleonotoma,clematis,
260,D3CA0,,Tanaecium,bilabiatum,
261,D3CA1,,Amphilophium,crucigerum,
262,D3CA1,,Dolichandra,unguis,
263,D3CA1,,GRP-2,,
264,D3CA1,,GRP-15,,
265,D3CA1,,GRP-16,,
266,D3CA2,,Adenocalymma,bracteatum,
267,D3CA2,,Adenocalymma,nodosum,
268,D3CA2,,Anemopaegma,acutifolium,
269,D3CA2,,Anemopaegma,arvense,
270,D3CA2,,Anemopaegma,chamberlaynii,
271,D3CA2,,Anemopaegma,glaucum,
272,D3CA2,,Cuspidaria,bracteata,
273,D3CA2,,Cuspidaria,convoluta,
274,D3CA2,,Cuspidaria,pulchra,
275,D3CA2,,Cuspidaria,sceptrum,
276,D3CA2,,Cuspidaria,simplicifolia,
277,D3CA2,,Fridericia,craterophora,
278,D3CA2,,Fridericia,samydoides,
279,D3CA2,,Mansoa,difficilis,
280,D3CA2,,Perianthomega,vellozoi,
281,D3CA2,,Stizophyllum,perforatum,
282,D3CA3,,Adenocalymma,schomburgkii,
283,D3CA3,,Adenocalymma,tanaeciicarpum,
284,D3CA3,,Amphilophium,granulosum,
285,D3CA3,,Amphilophium,magnoliifolium,
286,D3CA3,,Amphilophium,pulverulentum,
287,D3CA3,,Anemopaegma,foetidum,
288,D3CA3,,Anemopaegma,ionanthum,
289,D3CA3,,Anemopaegma,oligoneuron,
290,D3CA3,,Anemopaegma,paraense,
291,D3CA3,,Anemopaegma,robustum,
292,D3CA3,,Bignonia,sordida,
293,D3CA3,,Cuspidaria,subincana,
294,D3CA3,,Dolichandra,steyermarkii,
295,D3CA3,,Fridericia,egensis,
296,D3CA3,,Fridericia,nigrescens,
297,D3CA3,,Fridericia,prancei,
298,D3CA3,,Pleonotoma,clematis,
299,D3CA3,,Pleonotoma,jasminifolia,
300,D3CA3,,Tanaecium,duckei,
301,D3CA4,,Adenocalymma,divaricatum,
302,D3CA4,,Adenocalymma,scabriusculum,
303,D3CA4,,Fridericia,dispar,
304,D3CA5,,Adenocalymma,alboaurantiacum,
305,D3CA5,,Adenocalymma,aurantiacum,
306,D3CA5,,Adenocalymma,bullatum,
307,D3CA5,,Adenocalymma,candolleanum,
308,D3CA5,,Adenocalymma,cinereum,
309,D3CA5,,Adenocalymma,coriaceum,
310,D3CA5,,Adenocalymma,cristicalyx,
311,D3CA5,,Adenocalymma,cymbalum,
312,D3CA5,,Adenocalymma,dichilum,
313,D3CA5,,Adenocalymma,divaricatum,
314,D3CA5,,Adenocalymma,dusenii,
315,D3CA5,,Adenocalymma,flavum,
316,D3CA5,,Adenocalymma,gibbosum,
317,D3CA5,,Adenocalymma,grandifolium,
318,D3CA5,,Adenocalymma,hatschbachii,
319,D3CA5,,Adenocalymma,hirtum,
320,D3CA5,,Adenocalymma,hypostictum,
321,D3CA5,,Adenocalymma,macrophyllum,
322,D3CA5,,Adenocalymma,paulistarum,
323,D3CA5,,Adenocalymma,pedunculatum,
324,D3CA5,,Adenocalymma,pubescens,
325,D3CA5,,Adenocalymma,salmoneum,
326,D3CA5,,Adenocalymma,scabriusculum,
327,D3CA5,,Adenocalymma,sessile,
328,D3CA5,,Adenocalymma,subsessilifolium,
329,D3CA5,,Adenocalymma,trifoliatum,
330,D3CA5,,Adenocalymma,ubatubense,
331,D3CA5,,Amphilophium,bauhinioides,
332,D3CA5,,Amphilophium,blanchetii,
333,D3CA5,,Amphilophium,bracteatum,
334,D3CA5,,Amphilophium,dolichoides,
335,D3CA5,,Amphilophium,dusenianum,
336,D3CA5,,Amphilophium,frutescens,
337,D3CA5,,Amphilophium,scabriusculum,
338,D3CA5,,Anemopaegma,album,
339,D3CA5,,Anemopaegma,citrinum,
340,D3CA5,,Anemopaegma,goyazense,
341,D3CA5,,Anemopaegma,gracile,
342,D3CA5,,Anemopaegma,hilarianum,
343,D3CA5,,Anemopaegma,laeve,
344,D3CA5,,Anemopaegma,mirabile,
345,D3CA5,,Anemopaegma,nebulosum,
346,D3CA5,,Anemopaegma,pabstii,
347,D3CA5,,Anemopaegma,scabriusculum,
348,D3CA5,,Anemopaegma,setilobum,
349,D3CA5,,Anemopaegma,velutinum,
350,D3CA5,,Bignonia,costata,
351,D3CA5,,Cuspidaria,argentea,
352,D3CA5,,Cuspidaria,cratensis,
353,D3CA5,,Cuspidaria,lasiantha,
354,D3CA5,,Cuspidaria,multiflora,
355,D3CA5,,Cuspidaria,octoptera,
356,D3CA5,,Cuspidaria,pulchella,
357,D3CA5,,Dolichandra,unguiculata,
358,D3CA5,,Fridericia,bahiensis,
359,D3CA5,,Fridericia,cuneifolia,
360,D3CA5,,Fridericia,dispar,
361,D3CA5,,Fridericia,elegans,
362,D3CA5,,Fridericia,erubescens,
363,D3CA5,,Fridericia,formosa,
364,D3CA5,,Fridericia,leucopogon,
365,D3CA5,,Fridericia,limae,
366,D3CA5,,Fridericia,rego,
367,D3CA5,,Fridericia,samydoides,
368,D3CA5,,Fridericia,simplex,
369,D3CA5,,Fridericia,speciosa,
370,D3CA5,,Fridericia,subexserta,
371,D3CA5,,Fridericia,subincana,
372,D3CA5,,Fridericia,trachyphylla,
373,D3CA5,,Fridericia,tynanthoides,
374,D3CA5,,Lundia,damazioi,
375,D3CA5,,Lundia,gardneri,
376,D3CA5,,Lundia,longa,
377,D3CA5,,Lundia,obliqua,
378,D3CA5,,Lundia,virginalis,
379,D3CA5,,Mansoa,glaziovii,
380,D3CA5,,Mansoa,hirsuta,
381,D3CA5,,Mansoa,hymenaea,
382,D3CA5,,Mansoa,ivanii,
383,D3CA5,,Mansoa,lanceolata,
384,D3CA5,,Mansoa,longicalyx,
385,D3CA5,,Mansoa,minensis,
386,D3CA5,,Mansoa,onohualcoides,
387,D3CA5,,Mansoa,paganuccii,
388,D3CA5,,Martinella,insignis,
389,D3CA5,,Pleonotoma,castelnaei,
390,D3CA5,,Pleonotoma,fluminensis,
391,D3CA5,,Pleonotoma,orientalis,
392,D3CA5,,Pleonotoma,stichadenia,
393,D3CA5,,Pleonotoma,tetraquetra,
394,D3CA5,,Tanaecium,cyrtanthum,
395,D3CA5,,Tanaecium,neobrasiliense,
396,D3CA5,,Tanaecium,paradoxum,
397,D3CA5,,Tanaecium,parviflorum,
398,D3CA5,,Tynanthus,cognatus,
399,D3CA5,,Tynanthus,fasciculatus,
400,D3CA5,,Tynanthus,labiatus,
401,D3CA5,,Tynanthus,micranthus,
402,D3CA5,,Xylophragma,corchoroides,
403,D3CA5,,Xylophragma,harleyi,
404,D3CA5,,Xylophragma,heterocalyx,
405,D3CA5,,Xylophragma,myrianthum,
406,D3CA6,,Amphilophium,parkeri,
407,D3CA6,,Amphilophium,porphyrotrichum,
408,D3CA6,,Bignonia,microcalyx,
409,D3CA6,,Fridericia,mollis,
410,D3CA6,,Fridericia,oligantha,
411,D3CA6,,Pleonotoma,echitidea,
412,D3CA7,,Adenocalymma,uleanum,
413,D3CA7,,Amphilophium,cuneifolium,
414,D3CA7,,Amphilophium,nunezii,
415,D3CA7,,Anemopaegma,insculptum,
416,D3CA7,,Bignonia,sanctae,
417,D3CA7,,Bignonia,uleana,
418,D3CA7,,Cuspidaria,emmonsii,
419,D3CA7,,Fridericia,arthrerion,
420,D3CA7,,Fridericia,pearcei,
421,D3CA7,,Fridericia,poeppigii,
422,D3CA7,,Lundia,spruceana,
423,D3CA7,,Pleonotoma,pavettiflora,
424,D3CA7,,Tanaecium,xanthophyllum,
425,D3CA8,,Adenocalymma,arthropetiolatum,
426,D3CA8,,Adenocalymma,aspericarpum,
427,D3CA8,,Adenocalymma,chocoense,
428,D3CA8,,Adenocalymma,dugandii,
429,D3CA8,,Adenocalymma,magdalenense,
430,D3CA8,,Amphilophium,chocoense,
431,D3CA8,,Amphilophium,steyermarkii,
432,D3CA8,,Anemopaegma,karstenii,
433,D3CA8,,Anemopaegma,santaritense,
434,D3CA8,,Anemopaegma,villosum,
435,D3CA8,,Bignonia,cuneata,
436,D3CA8,,Bignonia,neouliginosa,
437,D3CA8,,Bignonia,phellosperma,
438,D3CA8,,Bignonia,pterocalyx,
439,D3CA8,,Fridericia,oxycarpa,
440,D3CA8,,Pachyptera,erythraea,
441,D3CA8,,Tanaecium,crucigerum,
442,D3CA8,,Tanaecium,exitiosum,
443,D3CA8,,Tynanthus,croatianus,
444,D3CA8,,Tynanthus,macranthus,
445,D3CA9,,Dolichandra,steyermarkii,
446,D3CA9,,Lundia,puberula,
447,D3CA9,,Mansoa,alliacea,
448,D3CA9,,Mansoa,standleyi,
449,D3CA9,,Martinella,obovata,
450,D3CA9,,Pachyptera,kerere,
451,D3CA9,,Pleonotoma,variabilis,
452,D3CA9,,GRP-26,,
453,D3CA10,,Cuspidaria,pulchella,
454,D3CA10,,Fridericia,samydoides,
455,D3CA10,,Lundia,nitidula,
456,D3CA10,,Lundia,virginalis,
457,D3CA10,,Pleonotoma,tetraquetra,
458,D3CA10,,Xylophragma,myrianthum,
459,D3CA11,,Amphilophium,arenarium,
460,D3CA11,,Amphilophium,monophyllum,
461,D3CA11,,Amphilophium,obovatum,
462,D3CA11,,Amphilophium,pauciflorum,
463,D3CA11,,Amphilophium,porphyrotrichum,
464,D3CA11,,Anemopaegma,alatum,
465,D3CA11,,Anemopaegma,grandifolium,
466,D3CA11,,Anemopaegma,jucundum,
467,D3CA11,,Anemopaegma,robustum,
468,D3CA11,,Anemopaegma,salicifolium,
469,D3CA11,,Bignonia,microcalyx,
470,D3CA11,,Cuspidaria,monophylla,
471,D3CA11,,Fridericia,carichanensis,
472,D3CA11,,Fridericia,grosourdyana,
473,D3CA11,,Fridericia,oligantha,
474,D3CA11,,Pleonotoma,dendrotricha,
475,D3CA11,,Pleonotoma,echitidea,
476,D3CA11,,Pleonotoma,exserta,
477,D3CA11,,Tanaecium,apiculatum,
478,D3CA12,,Amphilophium,granulosum,
479,D3CA12,,Cuspidaria,bracteolata,
480,D3CA12,,Fridericia,prancei,
481,D3CA12,,Martinella,iquitoensis,
482,D3CA12,,Pleonotoma,jasminifolia,
483,D3CA12,,Tanaecium,truncatum,
484,D3CA13,,Adenocalymma,dugandii,
485,D3CA13,,Amphilophium,chocoense,
486,D3CA13,,Anemopaegma,santaritense,
487,D3CA13,,Bignonia,magnifica,
488,D3CA14,,Adenocalymma,adenophorum,
489,D3CA14,,Adenocalymma,cidii,
490,D3CA14,,Adenocalymma,longilineum,
491,D3CA14,,Adenocalymma,molle,
492,D3CA14,,Adenocalymma,moringifolium,
493,D3CA14,,Amphilophium,laeve,
494,D3CA14,,Amphilophium,lohmanniae,
495,D3CA14,,Amphilophium,reticulatum,
496,D3CA14,,Anemopaegma,ionanthum,
497,D3CA14,,Anemopaegma,jucundum,
498,D3CA14,,Cuspidaria,cinerea,
499,D3CA14,,Cuspidaria,monophylla,
500,D3CA14,,Cuspidaria,subincana,
501,D3CA14,,Fridericia,lauta,
502,D3CA14,,Pachyptera,aromatica,
503,D3CA14,,Pleonotoma,longiflora,
504,D3CA14,,Tynanthus,densiflorus,
505,D3CA15,,Adenocalymma,adenophorum,
506,D3CA15,,Amphilophium,lohmanniae,
507,D3CA15,,Anemopaegma,foetidum,
508,D3CA15,,Cuspidaria,subincana,
509,D3CA16,,Adenocalymma,apparicianum,
510,D3CA16,,Adenocalymma,mirabile,
511,D3CA16,,Adenocalymma,subspicatum,
512,D3CA16,,Anemopaegma,mirabile,
513,D3CA16,,Cuspidaria,argentea,
514,D3CA16,,Cuspidaria,cratensis,
515,D3CA16,,Fridericia,crassa,
516,D3CA16,,Fridericia,limae,
517,D3CA16,,Fridericia,pliciflora,
518,D3CA16,,Lundia,helicocalyx,
519,D3CA16,,Mansoa,hirsuta,
520,D3CA16,,Pleonotoma,orientalis,
521,D3CA16,,Tanaecium,paradoxum,
522,D3CA17,,Adenocalymma,biternatum,
523,D3CA17,,Adenocalymma,impressum,
524,D3CA17,,Fridericia,spicata,
525,D3CA17,,Fridericia,tuberculata,
526,D3CA18,,Amphilophium,sandwithii,
527,D3CA18,,Anemopaegma,longipetiolatum,
528,D3CA18,,Fridericia,caudigera,
529,D3CA18,,Fridericia,fagoides,
530,D3CA18,,Fridericia,truncata,
531,D3CA18,,Fridericia,whitei,
532,D3CA18,,Tanaecium,tetramerum,
533,D3CA19,,Adenocalymma,paulistarum,
534,D3CA19,,Anemopaegma,prostratum,
535,D3CA19,,Bignonia,binata,
536,D3CA19,,Cuspidaria,convoluta,
537,D3CA19,,Fridericia,mutabilis,
538,D3CA19,,Fridericia,samydoides,
539,D3CA19,,Tynanthus,micranthus,
540,D3CA20,,Amphilophium,dasytrichum,
541,D3CA20,,Fridericia,arthrerion,
542,D3CA20,,Pleonotoma,pavettiflora,
543,D3CA20,,Tanaecium,xanthophyllum,
544,D3CA20,,Xylophragma,platyphyllum,
545,D3CA21,,Adenocalymma,subincanum,
546,D3CA21,,Lundia,laevis,
547,D3CA21,,Tanaecium,ornithophilum,
548,D3CA22,,Bignonia,sciuripabulum,
549,D3CA22,,Pyrostegia,venusta,
550,D3CA22,,GRP-14,,
551,D3CA23,,Cuspidaria,convoluta,
552,D3CA23,,Fridericia,samydoides,
553,D3CA23,,Mansoa,glaziovii,
554,D3CA23,,Tynanthus,cognatus,
555,D3CA24,,Adenocalymma,calcareum,
556,D3CA24,,Adenocalymma,cidii,
557,D3CA24,,Amphilophium,laeve,
558,D3CA25,,Bignonia,potosina,
559,D3CA25,,Fridericia,costaricensis,
560,D3CA25,,Fridericia,floribunda,
561,D3CA25,,Tanaecium,caudiculatum,
562,D3CA25,,Tynanthus,guatemalensis,
563,D3CA26,,Adenocalymma,allamandiflorum,
564,D3CA26,,Adenocalymma,gracielzae,
565,D3CA26,,Adenocalymma,magnificum,
566,D3CA26,,Adenocalymma,velutinum,
567,D3CA26,,Mansoa,angustidens,
568,D3CA26,,Pleonotoma,bracteata,
569,D3CA26,,Pyrostegia,millingtonioides,
570,D3CA27,,Amphilophium,carolinae,
571,D3CA27,,Bignonia,callistegioides,
572,D3CA27,,Dolichandra,cynanchoides,
573,D3CA28,,Anemopaegma,colombianum,
574,D3CA28,,Bignonia,bracteomana,
575,D3CA28,,Tanaecium,affine,
576,D3CA28,,Tynanthus,panurensis,
577,D3CA29,,Amphilophium,steyermarkii,
578,D3CA29,,Anemopaegma,rugosum,
579,D3CA29,,Anemopaegma,villosum,
580,D3CA29,,Fridericia,carichanensis,
581,D3CA30,,Adenocalymma,album,
582,D3CA30,,Adenocalymma,saulense,
583,D3CA30,,Amphilophium,cremersii,
584,D3CA30,,Amphilophium,parkeri,
585,D3CA30,,Anemopaegma,granvillei,
586,D3CA30,,Fridericia,oligantha,
587,D3CA30,,Tynanthus,sastrei,
588,D3CA31,,Amphilophium,buccinatorium,
589,D3CA31,,Fridericia,floribunda,
590,D3CA31,,Fridericia,viscida,
591,D3CA32,,Bignonia,bracteomana,
592,D3CA32,,Fridericia,nicotianiflora,
593,D3CA32,,Fridericia,pearcei,
594,D3CA32,,Lundia,spruceana,
595,D3CA32,,Tanaecium,affine,
596,D3CA33,,Amphilophium,laxiflorum,
597,D3CA33,,Bignonia,potosina,
598,D3CA33,,Fridericia,viscida,